<?xml version="1.0" encoding="utf-8"?>
<!-- Generator: Adobe Illustrator 19.1.0, SVG Export Plug-In . SVG Version: 6.00 Build 0)  -->
<svg version="1.1" id="CNT" xmlns="http://www.w3.org/2000/svg" xmlns:xlink="http://www.w3.org/1999/xlink" x="0px" y="0px"
	 viewBox="0 0 210 112" style="enable-background:new 0 0 210 112;" xml:space="preserve">
<style type="text/css">
	.st0{fill:#50E0B0;}
	.st1{fill:#262626;}
	.st2{fill:none;stroke:#262626;stroke-width:2;stroke-miterlimit:10;}
	.st3{fill:#FFFFFF;}
	.st4{fill:none;stroke:#FF5E57;stroke-width:0.75;stroke-miterlimit:10;}
	.st5{opacity:0.25;fill:url(#);}
	.st6{fill:#FF5E57;}
</style>
<g>
	<path class="st0" d="M56,58.4c2.2,0,4-1.8,4-4c0-2.2-1.8-4-4-4c-1.7,0-3.1,1-3.7,2.5H32.1l22.1-19c0.5,0.3,1.2,0.5,1.8,0.5
		c2.2,0,4-1.8,4-4c0-2.2-1.8-4-4-4c-2.2,0-4,1.8-4,4c0,0.4,0.1,0.9,0.2,1.3L29.8,50.9c-0.5-0.3-1.2-0.5-1.8-0.5c-2.2,0-4,1.8-4,4
		c0,2.2,1.8,4,4,4c0.7,0,1.3-0.2,1.8-0.5l22.4,19.2C52.1,77.5,52,78,52,78.4c0,2.2,1.8,4,4,4c2.2,0,4-1.8,4-4c0-2.2-1.8-4-4-4
		c-0.7,0-1.3,0.2-1.8,0.5l-22.1-19h20.2C52.9,57.4,54.3,58.4,56,58.4z"/>
	<g>
		<path class="st1" d="M81.6,36.7H72V24h9.4v2.3h-6.9v2.8h6.6v2.3h-6.6v2.9h7V36.7z"/>
		<path class="st1" d="M90.2,30.4c-0.7-0.3-1.8-0.7-2.8-0.7c-0.9,0-1.4,0.3-1.4,0.8c0,0.5,0.6,0.6,1.4,0.8l0.8,0.1
			c1.9,0.3,3,1.1,3,2.6c0,1.8-1.5,3-4,3c-1.2,0-2.8-0.2-3.9-1l0.9-1.8c0.8,0.5,1.7,0.9,3,0.9c1.1,0,1.6-0.3,1.6-0.8
			c0-0.4-0.4-0.7-1.5-0.8l-0.7-0.1c-2-0.3-3-1.2-3-2.7c0-1.8,1.4-2.9,3.7-2.9c1.4,0,2.5,0.3,3.7,0.8L90.2,30.4z"/>
		<path class="st1" d="M99.3,30.4c-0.7-0.3-1.8-0.7-2.8-0.7c-0.9,0-1.4,0.3-1.4,0.8c0,0.5,0.6,0.6,1.4,0.8l0.8,0.1
			c1.9,0.3,3,1.1,3,2.6c0,1.8-1.5,3-4,3c-1.2,0-2.8-0.2-3.9-1l0.9-1.8c0.8,0.5,1.7,0.9,3,0.9c1.1,0,1.6-0.3,1.6-0.8
			c0-0.4-0.4-0.7-1.5-0.8l-0.7-0.1c-2-0.3-3-1.2-3-2.7c0-1.8,1.4-2.9,3.7-2.9c1.4,0,2.5,0.3,3.7,0.8L99.3,30.4z"/>
		<path class="st1" d="M110.3,32.3c0,0.3,0,0.6,0,0.8H104c0.3,1.3,1.1,1.8,2.3,1.8c0.8,0,1.6-0.3,2.2-0.8l1.4,1.5
			c-1,0.9-2.3,1.3-3.8,1.3c-2.7,0-4.6-1.8-4.6-4.6c0-2.8,1.8-4.7,4.5-4.7C108.5,27.7,110.2,29.6,110.3,32.3z M104,31.5h3.9
			c-0.2-1.1-0.9-1.8-1.9-1.8C104.8,29.7,104.2,30.4,104,31.5z"/>
		<path class="st1" d="M120.4,31.1v5.6h-2.4v-4.8c0-1.3-0.6-2-1.7-2c-1,0-1.9,0.7-1.9,2v4.8h-2.4v-8.8h2.3v1
			c0.6-0.9,1.6-1.3,2.6-1.3C119,27.7,120.4,29.1,120.4,31.1z"/>
		<path class="st1" d="M129.1,30h-3.2v3.2c0,1.1,0.6,1.5,1.3,1.5c0.6,0,1.2-0.3,1.7-0.6l0.9,1.9c-0.8,0.5-1.7,0.9-2.9,0.9
			c-2.2,0-3.3-1.2-3.3-3.5V30h-1.7v-2.1h1.7v-2.6h2.4v2.6h3.2V30z"/>
		<path class="st1" d="M133.8,25c0,0.9-0.7,1.5-1.5,1.5c-0.9,0-1.5-0.7-1.5-1.5c0-0.9,0.7-1.5,1.5-1.5
			C133.1,23.5,133.8,24.2,133.8,25z M133.5,36.7h-2.4v-8.8h2.4V36.7z"/>
		<path class="st1" d="M144.5,36.7h-2.3v-1c-0.6,0.7-1.4,1.2-2.6,1.2c-2.4,0-4.3-2-4.3-4.6s1.8-4.6,4.3-4.6c1.2,0,2.1,0.5,2.6,1.2
			v-1h2.3V36.7z M137.7,32.3c0,1.3,0.9,2.4,2.3,2.4c1.4,0,2.3-1,2.3-2.4c0-1.4-0.9-2.4-2.3-2.4C138.6,29.9,137.7,31,137.7,32.3z"/>
		<path class="st1" d="M149.3,36.7h-2.4V23.6h2.4V36.7z"/>
		<path class="st1" d="M77.3,48c4,0,6.6,2.5,6.6,6.4c0,3.8-2.6,6.4-6.6,6.4H72V48H77.3z M74.6,50.4v8h2.7c2.7,0,4-1.7,4-4
			c0-2.3-1.3-4-4-4H74.6z"/>
		<path class="st1" d="M94.6,60.7h-2.3v-1c-0.6,0.7-1.4,1.2-2.6,1.2c-2.4,0-4.3-2-4.3-4.6s1.8-4.6,4.3-4.6c1.2,0,2.1,0.5,2.6,1.2v-1
			h2.3V60.7z M87.8,56.3c0,1.3,0.9,2.4,2.3,2.4c1.4,0,2.3-1,2.3-2.4s-0.9-2.4-2.3-2.4C88.7,53.9,87.8,55,87.8,56.3z"/>
		<path class="st1" d="M103.4,54h-3.2v3.2c0,1.1,0.6,1.5,1.3,1.5c0.6,0,1.2-0.3,1.7-0.6l0.9,1.9c-0.8,0.5-1.7,0.9-2.9,0.9
			c-2.2,0-3.3-1.2-3.3-3.5V54h-1.7v-2.1h1.7v-2.6h2.4v2.6h3.2V54z"/>
		<path class="st1" d="M114,60.7h-2.3v-1c-0.6,0.7-1.4,1.2-2.6,1.2c-2.4,0-4.3-2-4.3-4.6s1.8-4.6,4.3-4.6c1.2,0,2.1,0.5,2.6,1.2v-1
			h2.3V60.7z M107.2,56.3c0,1.3,0.9,2.4,2.3,2.4c1.4,0,2.3-1,2.3-2.4s-0.9-2.4-2.3-2.4C108.1,53.9,107.2,55,107.2,56.3z"/>
		<path class="st1" d="M129.6,51.2c-1-0.6-2.2-1.1-3.6-1.1c-1.4,0-2.4,0.6-2.4,1.5c0,0.9,1.1,1.2,2.6,1.5l0.7,0.1
			c2.3,0.4,4.1,1.3,4.1,3.6c0,2.8-2.5,4.1-5.2,4.1c-1.9,0-4-0.6-5.4-1.7l1.3-2c0.9,0.7,2.4,1.4,4.1,1.4c1.4,0,2.5-0.6,2.5-1.5
			c0-0.9-0.9-1.2-2.7-1.5l-0.8-0.1c-2.2-0.4-3.9-1.3-3.9-3.6c0-2.7,2.4-4,5.1-4c1.8,0,3.3,0.4,4.9,1.4L129.6,51.2z"/>
		<path class="st1" d="M140.8,53.3l-1.7,1.4c-0.5-0.6-1.1-0.9-1.9-0.9c-1.2,0-2.2,1-2.2,2.4c0,1.5,1,2.4,2.2,2.4
			c0.8,0,1.4-0.3,1.9-0.9l1.7,1.4c-0.8,1.1-2.1,1.7-3.5,1.7c-2.8,0-4.7-2-4.7-4.6c0-2.7,1.9-4.6,4.7-4.6
			C138.7,51.7,140,52.3,140.8,53.3z"/>
		<path class="st1" d="M145.1,49c0,0.9-0.7,1.5-1.5,1.5c-0.9,0-1.5-0.7-1.5-1.5s0.7-1.5,1.5-1.5C144.5,47.5,145.1,48.2,145.1,49z
			 M144.8,60.7h-2.4v-8.8h2.4V60.7z"/>
		<path class="st1" d="M155.4,56.3c0,0.3,0,0.6,0,0.8h-6.2c0.3,1.3,1.1,1.8,2.3,1.8c0.8,0,1.6-0.3,2.2-0.8l1.4,1.5
			c-1,0.9-2.3,1.3-3.8,1.3c-2.7,0-4.6-1.8-4.6-4.6c0-2.8,1.8-4.7,4.5-4.7C153.7,51.7,155.4,53.6,155.4,56.3z M149.1,55.5h3.9
			c-0.2-1.1-0.9-1.8-1.9-1.8C150,53.7,149.3,54.4,149.1,55.5z"/>
		<path class="st1" d="M165.6,55.1v5.6h-2.4v-4.8c0-1.3-0.6-2-1.7-2c-1,0-1.9,0.7-1.9,2v4.8h-2.4v-8.8h2.3v1
			c0.6-0.9,1.6-1.3,2.6-1.3C164.2,51.7,165.6,53.1,165.6,55.1z"/>
		<path class="st1" d="M175.6,53.3l-1.7,1.4c-0.5-0.6-1.1-0.9-1.9-0.9c-1.2,0-2.2,1-2.2,2.4c0,1.5,1,2.4,2.2,2.4
			c0.8,0,1.4-0.3,1.9-0.9l1.7,1.4c-0.8,1.1-2.1,1.7-3.5,1.7c-2.8,0-4.7-2-4.7-4.6c0-2.7,1.9-4.6,4.7-4.6
			C173.5,51.7,174.8,52.3,175.6,53.3z"/>
		<path class="st1" d="M185.2,56.3c0,0.3,0,0.6,0,0.8h-6.2c0.3,1.3,1.1,1.8,2.3,1.8c0.8,0,1.6-0.3,2.2-0.8l1.4,1.5
			c-1,0.9-2.3,1.3-3.8,1.3c-2.7,0-4.6-1.8-4.6-4.6c0-2.8,1.8-4.7,4.5-4.7C183.5,51.7,185.2,53.6,185.2,56.3z M179,55.5h3.9
			c-0.2-1.1-0.9-1.8-1.9-1.8C179.8,53.7,179.2,54.4,179,55.5z"/>
		<path class="st0" d="M82.4,74.3h-3.9v10.4h-2.5V74.3H72V72h10.4V74.3z"/>
		<path class="st0" d="M88.9,75.8l-0.4,2.4c-0.4-0.2-1-0.3-1.4-0.3c-1.1,0-1.9,0.7-1.9,2v4.8h-2.4v-8.8h2.3v1
			c0.6-0.8,1.4-1.2,2.5-1.2C88.2,75.6,88.6,75.7,88.9,75.8z"/>
		<path class="st0" d="M98.8,84.7h-2.3v-1c-0.6,0.7-1.4,1.2-2.6,1.2c-2.4,0-4.3-2-4.3-4.6s1.8-4.6,4.3-4.6c1.2,0,2.1,0.5,2.6,1.2v-1
			h2.3V84.7z M92,80.3c0,1.3,0.9,2.4,2.3,2.4c1.4,0,2.3-1,2.3-2.4s-0.9-2.4-2.3-2.4C92.9,77.9,92,78.9,92,80.3z"/>
		<path class="st0" d="M103.9,73c0,0.9-0.7,1.5-1.5,1.5s-1.5-0.7-1.5-1.5s0.7-1.5,1.5-1.5S103.9,72.1,103.9,73z M103.6,84.7h-2.4
			v-8.8h2.4V84.7z"/>
		<path class="st0" d="M114.4,79.1v5.6H112v-4.8c0-1.3-0.6-2-1.7-2c-1,0-1.9,0.7-1.9,2v4.8H106v-8.8h2.3v1c0.6-0.9,1.6-1.3,2.6-1.3
			C112.9,75.6,114.4,77,114.4,79.1z"/>
		<path class="st0" d="M119.4,73c0,0.9-0.7,1.5-1.5,1.5c-0.9,0-1.5-0.7-1.5-1.5s0.7-1.5,1.5-1.5C118.7,71.5,119.4,72.1,119.4,73z
			 M119.1,84.7h-2.4v-8.8h2.4V84.7z"/>
		<path class="st0" d="M129.8,79.1v5.6h-2.4v-4.8c0-1.3-0.6-2-1.7-2c-1,0-1.9,0.7-1.9,2v4.8h-2.4v-8.8h2.3v1
			c0.6-0.9,1.6-1.3,2.6-1.3C128.4,75.6,129.8,77,129.8,79.1z"/>
		<path class="st0" d="M138.4,76.9v-1h2.3V84c0,2.8-1.8,4.5-4.8,4.5c-1.4,0-2.9-0.4-3.9-1.1l0.8-1.9c0.9,0.6,1.9,0.9,2.9,0.9
			c1.5,0,2.5-0.8,2.5-2.3v-0.6c-0.6,0.7-1.5,1.2-2.7,1.2c-2.1,0-4.1-1.8-4.1-4.5c0-2.7,1.9-4.5,4.1-4.5
			C136.9,75.6,137.8,76.1,138.4,76.9z M134,80.1c0,1.3,0.9,2.3,2.2,2.3c1.3,0,2.2-1,2.2-2.3c0-1.3-0.9-2.3-2.2-2.3
			C134.9,77.8,134,78.9,134,80.1z"/>
	</g>
</g>
</svg>
